<?xml version="1.0" encoding="utf-8"?>
<!-- Generator: Adobe Illustrator 24.0.1, SVG Export Plug-In . SVG Version: 6.00 Build 0)  -->
<svg version="1.1" id="Layer_1" xmlns="http://www.w3.org/2000/svg" xmlns:xlink="http://www.w3.org/1999/xlink" x="0px" y="0px"
	 viewBox="0 0 1313.07 720.4" style="enable-background:new 0 0 1313.07 720.4;" xml:space="preserve">
<style type="text/css">
	.st0{fill:#00AEEF;}
	.st1{fill:#FF001F;}
</style>
<g>
	<path class="st0" d="M670.48,371.63v-33.15h-44.05c3.09,5.6,4.7,11.94,4.7,18.75c0,5.1-0.9,9.94-2.65,14.41H670.48z"/>
	<path class="st0" d="M620.91,330.89c1.95,2.08,3.62,4.33,5.03,6.72l23.52-23.52c6.47-6.47,6.48-16.96,0.01-23.44c0,0,0,0-0.01-0.01
		c-6.47-6.47-16.97-6.47-23.44,0l-29.23,29.23C606.79,320.81,614.9,324.5,620.91,330.89z"/>
	<path class="st0" d="M595.47,490.98H529.4l-56.89-56.89l50.96-1.84c0.18-0.01,0.36-0.04,0.54-0.05l0.2-0.02
		c8.79-0.71,15.55-8.2,15.23-17.1c-0.18-5.15-2.76-9.92-6.97-12.9l-10.7-10.67c-4.42-1.87-8.27-4.52-11.51-7.97
		c-2.93-3.12-5.26-6.63-6.95-10.44l-1.47-1.47h0.86c-1.75-4.46-2.65-9.3-2.65-14.41c0-6.81,1.61-13.16,4.69-18.75h-6.94l35.77-38.44
		c6.24-6.7,5.86-17.19-0.85-23.43c0,0,0,0,0,0c-2.64-2.46-6.01-3.98-9.6-4.33c-2.1-0.1-47.51-0.01-47.51-0.01l53.14-53.14h66.71
		c9.16,0,16.58-7.42,16.58-16.58c0-9.16-7.42-16.58-16.58-16.58h-33.56l39.1-39.1c6.47-6.47,6.47-16.97,0-23.45
		c-6.48-6.47-17.34-6.47-23.81,0l-39.92,39.56v-34.48c0-9.16-7.42-16.58-16.58-16.58c-9.15,0-16.58,7.42-16.58,16.57c0,0,0,0,0,0
		v67.63l-54.89,55.26l-0.92-50.05c0-0.08,0.08-0.15,0.08-0.23c-0.08-4.03-1.56-8.05-4.58-11.18c-6.35-6.59-17.19-6.79-23.78-0.43
		l-35.25,33.65v-77.84l47.45-47.09c6.47-6.48,6.66-16.97,0.18-23.44c-6.48-6.47-17.25-6.47-23.72,0l-23.92,23.64V44.52
		c0-9.16-7.42-16.58-16.58-16.58c-9.15,0-16.58,7.42-16.58,16.57c0,0,0,0,0,0v53.91l-23.27-23.64c-6.35-6.42-16.71-6.48-23.14-0.12
		c-0.04,0.04-0.08,0.08-0.12,0.12c-6.47,6.48-6.75,16.97-0.28,23.44l46.81,47.09v78.29l-35.75-34.2
		c-6.53-6.25-16.88-6.02-23.13,0.51c-0.04,0.04-0.08,0.08-0.12,0.13c-2.38,2.51-3.72,5.57-4.23,8.74c-0.31,1.31-0.46,2.66-0.44,4
		l-0.19,46.92l-55.48-55.13v-66.07c0-9.16-7.42-16.58-16.58-16.58s-16.58,7.42-16.58,16.58v32.92l-37.63-38
		c-6.35-6.42-16.71-6.48-23.14-0.12c-0.04,0.04-0.08,0.08-0.12,0.12c-6.47,6.48-6.38,16.97,0.09,23.45l39.19,39.1h-35.12
		c-9.16,0-16.58,7.42-16.58,16.58c0,9.16,7.42,16.58,16.58,16.58h68.28l54.69,54.69l-50.96,1.84c-8.89,0.32-16.63,7.59-16.72,16.4
		c-0.01,0.25-0.77,0.5-0.77,0.74v0.02c0,0.02,0.76,0.04,0.76,0.05c0.1,4.14,2.11,8.26,5.29,11.4l35.01,34.21h-76.74l-47.82-47.82
		c-6.47-6.47-16.97-6.47-23.44,0c-6.47,6.47-6.47,16.97,0,23.44l24.38,24.38H58.4c-9.16,0-16.58,7.42-16.58,16.58
		c0,9.16,7.42,16.58,16.58,16.58h55.3l-23.74,23.74c-6.47,6.47-6.47,16.97,0,23.44c6.47,6.47,16.97,6.47,23.44,0l47.18-47.18H238
		l-33.71,36.23c-6.24,6.7-5.86,17.19,0.84,23.43c3.07,2.85,7.1,4.44,11.29,4.44c0.08,0,0.15-0.01,0.23-0.01
		c0.05,0,0.1,0.01,0.14,0.01h0.12l48.64-0.28l-55.53,55.53h-67.63c-9.16,0-16.58,7.42-16.58,16.58c0,9.16,7.42,16.58,16.58,16.58
		h34.48l-38.45,38.45c-6.47,6.47-6.47,16.97,0,23.44c3.11,3.11,7.33,4.85,11.72,4.85c4.24,0,8.12-1.62,11.35-4.85l37.63-38v33.56
		c0,9.16,7.42,16.58,16.58,16.58s16.58-7.42,16.58-16.58v-66.71l56.24-55.87l2.16,53.91c0.33,8.94,7.77,16.15,16.65,15.97
		c3.01-0.06,6.29-1.03,9.53-3.41c2.35-1.73,34.77-34.95,34.77-34.95v78.21l-46.35,46.72c-6.48,6.47-6.29,16.97,0.18,23.44
		c3.14,3.12,7.39,4.86,11.81,4.86c4.24,0,8.16-1.62,11.4-4.85l22.96-23.28V670c0,9.16,7.42,16.58,16.58,16.58
		c9.16,0,16.58-7.42,16.58-16.58v-55.94l25.2,24.84c3.24,3.24,7.66,4.85,11.91,4.85c4.42,0.01,8.67-1.74,11.81-4.85
		c6.47-6.48,6.15-16.97-0.32-23.44l-48.6-48.28v-78.9c0,0,30.34,28.5,35.13,33.1c4.79,4.6,8.71,7.18,14.42,7.18h0.1
		c9.15,0,16.53-7.97,16.48-17.12l-0.68-52.37l53.89,54.26v68.27c0,9.16,7.42,16.58,16.58,16.58c9.16,0,16.58-7.42,16.58-16.58
		v-35.12l39.92,39.56c3.24,3.24,7.66,4.85,11.91,4.85c4.24,0,8.58-1.62,11.81-4.85c6.47-6.48,6.52-16.97,0.05-23.44l-38.41-38.45
		h32.92c9.16,0,16.58-7.42,16.58-16.58C612.05,498.39,604.63,490.98,595.47,490.98z M297.37,305.83l32.64,32.64h-44.86l-31.45-31.07
		L297.37,305.83z M298.78,402.22l-44.23,0.3l28.74-30.89h46.08L298.78,402.22z M351.61,443.28l-29.4,30.23v0l-1.89-46.51
		l31.29-31.48V443.28z M351.61,313.92l-30.78-30.96l0.05-43.14l30.73,29.45V313.92z M442.57,305.32l40.84-0.03l-30.88,33.19h-43.11
		L442.57,305.32z M384.77,269.21l31.04-29.56l0.79,44.21l-31.82,31.64V269.21z M384.77,442.98v-49.02l31.92,31.74l0.46,47.07
		L384.77,442.98z M440.49,402.06l-30.43-30.43h44.85l28.94,28.87v0L440.49,402.06z"/>
	<path class="st0" d="M627.65,373.56c-1.67,3.63-3.92,6.99-6.73,9.99c-5.11,5.44-11.74,8.92-19.75,10.42l24.85,24.85
		c3.11,3.11,7.32,4.86,11.72,4.86c9.15,0.01,16.58-7.41,16.58-16.56c0-4.4-1.75-8.62-4.86-11.73L627.65,373.56z"/>
</g>
<g>
	<path class="st1" d="M540.42,379.81c-8.19,0-14.34-2.18-18.43-6.54c-4.1-4.36-6.14-9.71-6.14-16.05c0-6.34,2.04-11.69,6.14-16.05
		c4.09-4.36,10.24-6.54,18.43-6.54h51.92c8.19,0,14.33,2.18,18.43,6.54c4.09,4.36,6.14,9.71,6.14,16.05
		c0,6.34-2.05,11.69-6.14,16.05c-4.1,4.36-10.24,6.54-18.43,6.54H540.42z"/>
	<path class="st1" d="M649.41,269.23c-6.87,0-12.35-1.32-16.45-3.96c-4.09-2.64-6.14-6.74-6.14-12.29
		c0-10.04,5.55-15.98,16.65-17.84c14.79-2.38,26.09-6.14,33.89-11.3c7.79-5.15,14.2-12.48,19.22-22c4.76-8.98,8.52-14.6,11.3-16.84
		c2.77-2.24,7.59-3.37,14.47-3.37c4.76,0,8.78,1.78,12.09,5.35c3.3,3.57,4.95,8.92,4.95,16.05v244.14c0,7.93-2.58,14.47-7.73,19.62
		s-11.43,7.73-18.83,7.73c-7.4,0-13.67-2.58-18.83-7.73c-5.15-5.15-7.73-11.69-7.73-19.62V269.23H649.41z"/>
	<path class="st1" d="M786.15,344.93c5.28-12.42,14.66-21.8,28.14-28.14c-11.36-5.81-19.42-13.34-24.18-22.59
		c-4.76-9.25-7.13-20.74-7.13-34.48c0-24.04,6.4-42.67,19.22-55.88c12.81-13.21,31.91-19.82,57.27-19.82s44.45,6.61,57.27,19.82
		c12.81,13.22,19.22,31.84,19.22,55.88c0,13.74-2.38,25.24-7.13,34.48c-4.76,9.25-12.82,16.78-24.18,22.59
		c13.48,6.34,22.85,15.72,28.14,28.14c5.28,12.42,7.93,27.48,7.93,45.18c0,11.36-1.13,21.87-3.37,31.51
		c-2.25,9.65-6.21,18.5-11.89,26.55c-5.69,8.06-13.94,14.47-24.77,19.22c-10.84,4.76-24.57,7.13-41.22,7.13
		c-16.39,0-30.06-2.38-41.02-7.13c-10.97-4.76-19.29-11.16-24.97-19.22c-5.69-8.06-9.65-16.91-11.89-26.55
		c-2.25-9.64-3.37-20.15-3.37-31.51C778.22,372.42,780.86,357.36,786.15,344.93z M831.33,396.46c0,12.16,2.04,21.87,6.14,29.13
		c4.09,7.27,11.43,10.9,22,10.9c10.83,0,18.23-3.63,22.19-10.9c3.96-7.26,5.95-16.97,5.95-29.13v-21.01c0-4.76-0.4-9.38-1.19-13.87
		c-0.79-4.49-2.18-8.72-4.16-12.68c-1.98-3.96-4.89-7.2-8.72-9.71c-3.83-2.51-8.52-3.77-14.07-3.77s-10.24,1.26-14.07,3.77
		c-3.83,2.51-6.74,5.75-8.72,9.71c-1.98,3.96-3.37,8.19-4.16,12.68c-0.79,4.5-1.19,9.12-1.19,13.87V396.46z M839.06,287.07
		c3.57,6.87,10.37,10.3,20.41,10.3c10.04,0,16.84-3.43,20.41-10.3c3.57-6.87,5.35-15.98,5.35-27.35c0-11.36-1.78-20.47-5.35-27.35
		c-3.57-6.87-10.37-10.3-20.41-10.3c-8.72,0-15.2,3.31-19.42,9.91c-4.23,6.61-6.34,15.85-6.34,27.74
		C833.71,271.09,835.49,280.2,839.06,287.07z"/>
	<path class="st1" d="M973.81,200.47c10.96-10.96,24.38-16.45,40.23-16.45c15.85,0,29.26,5.49,40.23,16.45
		c10.96,10.97,16.45,24.38,16.45,40.23s-5.49,29.27-16.45,40.23c-10.97,10.97-24.38,16.45-40.23,16.45
		c-15.85,0-29.27-5.48-40.23-16.45c-10.97-10.96-16.45-24.37-16.45-40.23S962.84,211.44,973.81,200.47z M995.21,259.52
		c5.15,5.15,11.43,7.73,18.83,7.73c7.39,0,13.67-2.58,18.83-7.73c5.15-5.15,7.73-11.43,7.73-18.83c0-7.39-2.58-13.67-7.73-18.83
		s-11.43-7.73-18.83-7.73c-7.4,0-13.67,2.58-18.83,7.73s-7.73,11.43-7.73,18.83C987.49,248.1,990.06,254.37,995.21,259.52z"/>
	<path class="st1" d="M1079.43,306.89c0-25.37,1.78-46.3,5.35-62.82c3.57-16.51,8.98-29.66,16.25-39.44
		c7.26-9.77,16.65-16.78,28.14-21.01c11.49-4.22,25.43-6.34,41.81-6.34c25.37,0,45.05,6.74,59.05,20.21
		c14,13.48,21.01,30.52,21.01,51.13c0,10.04-2.12,17.83-6.34,23.38c-4.23,5.55-11.1,8.32-20.61,8.32c-10.04,0-16.91-2.24-20.61-6.74
		c-3.7-4.49-6.34-12.94-7.93-25.37c-2.64-19.28-10.84-28.93-24.57-28.93c-6.61,0-12.09,1.13-16.45,3.37
		c-4.36,2.25-7.99,6.61-10.9,13.08c-2.91,6.48-5.09,16.05-6.54,28.73c-1.46,12.68-2.18,29.6-2.18,50.73v15.85
		c0,38.84,1.98,65.73,5.95,80.65c3.96,14.93,13.48,22.39,28.54,22.39c6.87,0,12.94-2.77,18.23-8.32c5.28-5.55,8.06-12.42,8.32-20.61
		c0.79-16.65,3.03-28.07,6.74-34.28c3.7-6.21,10.96-9.31,21.8-9.31c8.98,0,15.72,2.77,20.21,8.32c4.49,5.55,6.74,13.21,6.74,22.99
		c0,28.54-7.6,49.54-22.79,63.02c-15.2,13.48-36.4,20.21-63.61,20.21c-19.82,0-35.61-3.63-47.36-10.9
		c-11.76-7.26-20.35-16.84-25.76-28.74c-5.42-11.89-8.86-24.44-10.31-37.65c-1.46-13.21-2.18-28.8-2.18-46.77V306.89z"/>
</g>
</svg>
